// Jest Snapshot v1, https://goo.gl/fbAQLP

exports[`HomeView Rendering the simple component 1`] = `
<div
  className="view-container"
>
  <div
    className="my-header text-light bg-dark text-center font-weight-bolder"
  >
    Rock, Paper, Scissors... Lets Play!
  </div>
  <div
    className="my-body"
  >
    <Round
      options={Array []}
    />
  </div>
</div>
`;
